1 10 20
100 200 125
787267 6563 509
201 210 89
900 1000 174
1 10 20
463881 169359 449
201 210 89
900 1000 174
1 999999 525
87 2 116
332386 202172 443
951010 971280 458
443066 345357 449
1884 1 182
42 87 116
388294 906537 525
181744 146426 383
42 45 30
51 54 113
589561 499081 470
98 100 26
685769 832315 504
992318 427460 525
476864 472586 382
1 999 179
967348 991825 458
80 89 111
780612 994868 525
16758 410557 449
277276 124097 443
69 85 116
181651 300591 443
155444 630276 509
884837 813772 525
779 549 171
632137 612369 509
968226 579555 525
355268 79554 443
822040 416831 509
10 41 112
317170 362810 441
73 1 116
64 429 144
329 152 144
853 628 171
336081 190820 443
91351 636191 509
85 1 116
8917 1158 262
3359 2895 217
42980 529344 470
1 1 1
350132 595970 470
620 3158 217
999999 999999 259
31 91 116
194812 227135 386
465180 22097 449
123456 1 354
5000 300013 443
8 46 112
307332 114170 443
40 89 116
8888 9999 260
1111 11111 268
1337 1337 45
518641 474210 470
980 275 179
888888 999999 507
71 69 103
4321 54321 340
934790 836369 525
211196 330984 443
12345 54321 340
100 200 125
87 78 111
783414 297174 509
3 15 20
800869 595036 509
239842 530335 470
752 1594 182
1 2 2
922417 174796 525
2521 3446 217
133318 397525 443
60883 394666 443
520665 371068 470
8109 815310 509
81 86 111
577548 560533 421
4314 4829 215
45709 38685 314
715927 564386 509
81 91 111
598651 893452 525
308121 559765 470
1363 95 182
261976 509383 449
690102 197433 509
40425 714339 509
