588501 86453 470
592767 415953 470
190261 740424 509
852194 473531 525
739392 535791 509
349367 42927 443
824297 75884 509
889801 500992 525
593850 185439 470
218809 507332 449
113231 359076 443
606509 731766 509
905918 291491 525
904903 250311 525
313396 207698 443
554034 366203 470
784580 779509 362
983709 641257 525
841643 297290 525
445404 254642 449
368167 443487 449
400587 609167 470
538227 197984 470
597904 137719 470
462061 949386 525
473886 591645 470
164475 38950 383
509066 711958 509
444998 717091 509
714485 338627 509
410158 919589 525
552110 838856 525
823216 494836 509
710045 573206 509
334502 648877 509
422941 82328 449
298623 336654 384
382960 327460 441
518670 808223 509
64919 585527 470
937762 219059 525
212232 891659 525
261346 485796 449
9725 141380 354
928806 34366 525
730843 354414 509
639391 400461 509
126539 999484 525
332418 124371 443
422445 338643 449
563415 680645 509
506420 873027 525
735921 89346 509
942556 276260 525
255737 396768 441
971093 936558 507
178737 179071 272
469534 848159 525
471441 706196 509
440559 328556 449
935707 749109 525
617558 447399 470
708504 384410 509
620583 682533 509
526869 401258 470
463250 166249 449
708005 878191 525
619105 748074 509
762068 888084 525
722947 683571 504
793165 721829 468
687436 462795 509
92107 653989 509
513958 641594 509
664121 59484 509
257858 709670 509
273994 727983 509
111197 179489 383
205581 691517 509
465102 787137 509
541111 627065 509
260200 21268 443
564237 943642 525
473212 483020 413
410506 208911 449
338091 216297 443
124302 30398 354
133912 157292 383
990618 306292 525
418253 108060 449
519445 293848 470
6569 315112 443
563684 993469 525
505066 339406 449
115716 818039 509
6961 649068 509
629723 907076 525
241552 885613 525
685048 462994 509
491838 191297 449
516750 832922 509
275765 178057 443
800469 302148 509
501478 385152 449
749470 109668 509
699014 956900 525
255836 451295 449
104787 445882 449
996107 69848 525
180209 291224 443
835281 977155 525
519749 591666 452
923847 257728 525
367798 669833 509
83118 238619 443
509882 900080 525
151259 482188 449
93253 703029 509
612743 1649 470
866794 744123 525
593114 330667 470
536356 195420 470
611920 518021 452
737586 312112 509
566893 588085 434
246491 843304 525
645216 914351 525
714593 916119 525
183127 685307 509
651113 351320 509
537634 14842 470
847819 986691 507
726844 508421 509
170114 510319 449
938970 495777 525
317634 777439 509
545985 267888 470
505791 164925 449
880927 923299 476
238809 879426 525
585680 565578 434
854884 676614 525
239394 242297 368
233718 123497 443
941498 413581 525
783396 144284 509
50418 555018 470
741379 951568 525
701788 912591 525
972658 791719 525
