1 10 20
100 200 125
201 210 89
900 1000 174
1 999999 525
999990 999999 259
5 10 20
2500 4500 238
1100 4900 238
1 1000 179
5 1500 182
999001 999999 396
1 999 179
1 1001 179
2 999999 525
30 350 144
50 50000 324
3500 6500 262
1 1999 182
1 2000 182
1 2001 182
2 1999 182
2 2000 182
2 2001 182
900000 999999 507
1001 2000 182
3001 4000 238
4001 7001 262
44000 22000 324
15000 35000 311
1 20 21
20 99 119
12345 67890 340
11111 99999 351
111111 999999 525
1 999998 525
1 999990 525
1 999000 525
5 17 20
5 2000 182
10 50000 324
50 300000 443
59 900000 525
2346 70980 340
234584 594839 470
2228 9994 262
6684 8840 257
284 884 179
273 8694 262
337 948 179
274 958 179
37 755 171
261 837 171
115 9733 262
3254 7462 262
163 849 171
3726 8392 262
3936 96424 351
425 63235 340
10 1 20
200 100 125
210 201 89
1000 900 174
1000 10 179
5000 3000 238
5500 2500 238
999999 1 525
987 32 179
8689 132 262
99999 11111 351
999990 111110 525
9997 3332 262
91 81 111
9 1 20
999999 999998 259
99938 7234 351
87 2 116
73 1 116
1884 1 182
2000 1001 182
5000 1001 238
7999 1001 262
49999 4001 324
9958 2342 262
9087 234 262
655 323 145
4 1 8
4654 12 238
7898 1134 262
999 111 179
789 123 171
987 321 179
777 444 171
85 51 116
85 58 116
94 49 116
100 11 119
101 12 119
150 15 122
200 20 125
324 24 131
409 49 144
199 98 125
90 50 116
95 1 116
4795 483 238
49399 4 324
483 4 144
92923 8 351
900 8 179
922 4 179
8080 22 262
6464 4646 262
928 10 179
1111 9 179
88 14 116
100000 10 351
9009 95 262
89335 9 351
1889 9881 262
